Lab3/ModelSim/dump.vcd
$date
	Sun Apr 30 14:05:17 2023
$end
$version
	ModelSim Version 2020.1
$end
$timescale
	1ps
$end

$scope module testbench $end
$var reg 1 ! clk $end
$var reg 1 " reset $end
$var wire 1 # out $end

$scope module dut $end
$var wire 1 $ clk $end
$var wire 1 % reset $end
$var reg 1 & out $end
$var reg 32 ' count [31:0] $end
$upscope $end
$upscope $end
$enddefinitions $end
#0
$dumpvars
0!
1"
0&
b0 '
0#
1%
0$
$end
#5
1!
1$
#10
0"
0!
0%
0$
#15
1!
1$
b1 '
#20
0!
0$
#25
1!
1$
b10 '
#30
0!
0$
#35
1!
1$
b11 '
#40
0!
0$
#45
1!
1$
b100 '
#50
0!
0$
#55
1!
1$
b101 '
#60
0!
0$
#65
1!
1$
b110 '
#70
0!
0$
#75
1!
1$
b111 '
#80
0!
0$
#85
1!
1$
b1000 '
#90
0!
0$
#95
1!
1$
b1001 '
#100
0!
0$
#105
1!
1$
b1010 '
#110
0!
0$
#115
1!
1$
b1011 '
#120
0!
0$
#125
1!
1$
b1100 '
#130
0!
0$
#135
1!
1$
b1101 '
#140
0!
0$
#145
1!
1$
b1110 '
#150
0!
0$
#155
1!
1$
b1111 '
#160
0!
0$
#165
1!
1$
b10000 '
#170
0!
0$
#175
1!
1$
b10001 '
#180
0!
0$
#185
1!
1$
b10010 '
#190
0!
0$
#195
1!
1$
b10011 '
#200
0!
0$
#205
1!
1$
b10100 '
#210
0!
0$
#215
1!
1$
b10101 '
#220
0!
0$
#225
1!
1$
b10110 '
#230
0!
0$
#235
1!
1$
b10111 '
#240
0!
0$
#245
1!
1$
b11000 '
#250
0!
0$
#255
1!
1$
b11001 '
#260
0!
0$
#265
1!
1$
b11010 '
#270
0!
0$
#275
1!
1$
b11011 '
#280
0!
0$
#285
1!
1$
b11100 '
#290
0!
0$
#295
1!
1$
b11101 '
#300
0!
0$
#305
1!
1$
b11110 '
#310
0!
0$
#315
1!
1$
b11111 '
#320
0!
0$
#325
1!
1$
b100000 '
#330
0!
0$
#335
1!
1$
b100001 '
#340
0!
0$
#345
1!
1$
b100010 '
#350
0!
0$
#355
1!
1$
b100011 '
#360
0!
0$
#365
1!
1$
b100100 '
#370
0!
0$
#375
1!
1$
b100101 '
#380
0!
0$
#385
1!
1$
b100110 '
#390
0!
0$
#395
1!
1$
b100111 '
#400
0!
0$
#405
1!
1$
b101000 '
#410
0!
0$
#415
1!
1$
b101001 '
#420
0!
0$
#425
1!
1$
b101010 '
#430
0!
0$
#435
1!
1$
b101011 '
#440
0!
0$
#445
1!
1$
b101100 '
#450
0!
0$
#455
1!
1$
b101101 '
#460
0!
0$
#465
1!
1$
b101110 '
#470
0!
0$
#475
1!
1$
b101111 '
#480
0!
0$
#485
1!
1$
b110000 '
#490
0!
0$
#495
1!
1$
b110001 '
#500
0!
0$
#505
1!
1$
b110010 '
#510
0!
0$
#515
1!
1$
b110011 '
#520
0!
0$
#525
1!
1$
b110100 '
#530
0!
0$
#535
1!
1$
b110101 '
#540
0!
0$
#545
1!
1$
b110110 '
#550
0!
0$
#555
1!
1$
b110111 '
#560
0!
0$
#565
1!
1$
b111000 '
#570
0!
0$
#575
1!
1$
b111001 '
#580
0!
0$
#585
1!
1$
b111010 '
#590
0!
0$
#595
1!
1$
b111011 '
#600
0!
0$
#605
1!
1$
b111100 '
#610
0!
0$
#615
1!
1$
b111101 '
#620
0!
0$
#625
1!
1$
b111110 '
#630
0!
0$
#635
1!
1$
b111111 '
#640
0!
0$
#645
1!
1$
b1000000 '
#650
0!
0$
#655
1!
1$
b1000001 '
#660
0!
0$
#665
1!
1$
b1000010 '
#670
0!
0$
#675
1!
1$
b1000011 '
#680
0!
0$
#685
1!
1$
b1000100 '
#690
0!
0$
#695
1!
1$
b1000101 '
#700
0!
0$
#705
1!
1$
b1000110 '
#710
0!
0$
#715
1!
1$
b1000111 '
#720
0!
0$
#725
1!
1$
b1001000 '
#730
0!
0$
#735
1!
1$
b1001001 '
#740
0!
0$
#745
1!
1$
b1001010 '
#750
0!
0$
#755
1!
1$
b1001011 '
#760
0!
0$
#765
1!
1$
b1001100 '
#770
0!
0$
#775
1!
1$
b1001101 '
#780
0!
0$
#785
1!
1$
b1001110 '
#790
0!
0$
#795
1!
1$
b1001111 '
#800
0!
0$
#805
1!
1$
b1010000 '
#810
0!
0$
#815
1!
1$
b1010001 '
#820
0!
0$
#825
1!
1$
b1010010 '
#830
0!
0$
#835
1!
1$
b1010011 '
#840
0!
0$
#845
1!
1$
b1010100 '
#850
0!
0$
#855
1!
1$
b1010101 '
#860
0!
0$
#865
1!
1$
b1010110 '
#870
0!
0$
#875
1!
1$
b1010111 '
#880
0!
0$
#885
1!
1$
b1011000 '
#890
0!
0$
#895
1!
1$
b1011001 '
#900
0!
0$
#905
1!
1$
b1011010 '
#910
0!
0$
#915
1!
1$
b1011011 '
#920
0!
0$
#925
1!
1$
b1011100 '
#930
0!
0$
#935
1!
1$
b1011101 '
#940
0!
0$
#945
1!
1$
b1011110 '
#950
0!
0$
#955
1!
1$
b1011111 '
#960
0!
0$
#965
1!
1$
b1100000 '
#970
0!
0$
#975
1!
1$
b1100001 '
#980
0!
0$
#985
1!
1$
b1100010 '
#990
0!
0$
#995
1!
1$
b1100011 '
#1000
0!
0$
#1005
1!
1$
b1100100 '
#1010
0!
0$
#1015
1!
1$
b1100101 '
b0 '
1&
1#
#1020
0!
0$
#1025
1!
1$
b1 '
#1030
0!
0$
#1035
1!
1$
b10 '
#1040
0!
0$
#1045
1!
1$
b11 '
#1050
0!
0$
#1055
1!
1$
b100 '
#1060
0!
0$
#1065
1!
1$
b101 '
#1070
0!
0$
#1075
1!
1$
b110 '
#1080
0!
0$
#1085
1!
1$
b111 '
#1090
0!
0$
#1095
1!
1$
b1000 '
#1100
0!
0$
#1105
1!
1$
b1001 '
#1110
0!
0$
#1115
1!
1$
b1010 '
#1120
0!
0$
#1125
1!
1$
b1011 '
#1130
0!
0$
#1135
1!
1$
b1100 '
#1140
0!
0$
#1145
1!
1$
b1101 '
#1150
0!
0$
#1155
1!
1$
b1110 '
#1160
0!
0$
#1165
1!
1$
b1111 '
#1170
0!
0$
#1175
1!
1$
b10000 '
#1180
0!
0$
#1185
1!
1$
b10001 '
#1190
0!
0$
#1195
1!
1$
b10010 '
#1200
0!
0$
#1205
1!
1$
b10011 '
#1210
0!
0$
#1215
1!
1$
b10100 '
#1220
0!
0$
#1225
1!
1$
b10101 '
#1230
0!
0$
#1235
1!
1$
b10110 '
#1240
0!
0$
#1245
1!
1$
b10111 '
#1250
0!
0$
#1255
1!
1$
b11000 '
#1260
0!
0$
#1265
1!
1$
b11001 '
#1270
0!
0$
#1275
1!
1$
b11010 '
#1280
0!
0$
#1285
1!
1$
b11011 '
#1290
0!
0$
#1295
1!
1$
b11100 '
#1300
0!
0$
#1305
1!
1$
b11101 '
#1310
0!
0$
#1315
1!
1$
b11110 '
#1320
0!
0$
#1325
1!
1$
b11111 '
#1330
0!
0$
#1335
1!
1$
b100000 '
#1340
0!
0$
#1345
1!
1$
b100001 '
#1350
0!
0$
#1355
1!
1$
b100010 '
#1360
0!
0$
#1365
1!
1$
b100011 '
#1370
0!
0$
#1375
1!
1$
b100100 '
#1380
0!
0$
#1385
1!
1$
b100101 '
#1390
0!
0$
#1395
1!
1$
b100110 '
#1400
0!
0$
#1405
1!
1$
b100111 '
#1410
0!
0$
#1415
1!
1$
b101000 '
#1420
0!
0$
#1425
1!
1$
b101001 '
#1430
0!
0$
#1435
1!
1$
b101010 '
#1440
0!
0$
#1445
1!
1$
b101011 '
#1450
0!
0$
#1455
1!
1$
b101100 '
#1460
0!
0$
#1465
1!
1$
b101101 '
#1470
0!
0$
#1475
1!
1$
b101110 '
#1480
0!
0$
#1485
1!
1$
b101111 '
#1490
0!
0$
#1495
1!
1$
b110000 '
#1500
0!
0$
#1505
1!
1$
b110001 '
#1510
0!
0$
#1515
1!
1$
b110010 '
#1520
0!
0$
#1525
1!
1$
b110011 '
#1530
0!
0$
#1535
1!
1$
b110100 '
#1540
0!
0$
#1545
1!
1$
b110101 '
#1550
0!
0$
#1555
1!
1$
b110110 '
#1560
0!
0$
#1565
1!
1$
b110111 '
#1570
0!
0$
#1575
1!
1$
b111000 '
#1580
0!
0$
#1585
1!
1$
b111001 '
#1590
0!
0$
#1595
1!
1$
b111010 '
#1600
0!
0$
#1605
1!
1$
b111011 '
#1610
0!
0$
#1615
1!
1$
b111100 '
#1620
0!
0$
#1625
1!
1$
b111101 '
#1630
0!
0$
#1635
1!
1$
b111110 '
#1640
0!
0$
#1645
1!
1$
b111111 '
#1650
0!
0$
#1655
1!
1$
b1000000 '
#1660
0!
0$
#1665
1!
1$
b1000001 '
#1670
0!
0$
#1675
1!
1$
b1000010 '
#1680
0!
0$
#1685
1!
1$
b1000011 '
#1690
0!
0$
#1695
1!
1$
b1000100 '
#1700
0!
0$
#1705
1!
1$
b1000101 '
#1710
0!
0$
#1715
1!
1$
b1000110 '
#1720
0!
0$
#1725
1!
1$
b1000111 '
#1730
0!
0$
#1735
1!
1$
b1001000 '
#1740
0!
0$
#1745
1!
1$
b1001001 '
#1750
0!
0$
#1755
1!
1$
b1001010 '
#1760
0!
0$
#1765
1!
1$
b1001011 '
#1770
0!
0$
#1775
1!
1$
b1001100 '
#1780
0!
0$
#1785
1!
1$
b1001101 '
#1790
0!
0$
#1795
1!
1$
b1001110 '
#1800
0!
0$
#1805
1!
1$
b1001111 '
#1810
0!
0$
#1815
1!
1$
b1010000 '
#1820
0!
0$
#1825
1!
1$
b1010001 '
#1830
0!
0$
#1835
1!
1$
b1010010 '
#1840
0!
0$
#1845
1!
1$
b1010011 '
#1850
0!
0$
#1855
1!
1$
b1010100 '
#1860
0!
0$
#1865
1!
1$
b1010101 '
#1870
0!
0$
#1875
1!
1$
b1010110 '
#1880
0!
0$
#1885
1!
1$
b1010111 '
#1890
0!
0$
#1895
1!
1$
b1011000 '
#1900
0!
0$
#1905
1!
1$
b1011001 '
#1910
0!
0$
#1915
1!
1$
b1011010 '
#1920
0!
0$
#1925
1!
1$
b1011011 '
#1930
0!
0$
#1935
1!
1$
b1011100 '
#1940
0!
0$
#1945
1!
1$
b1011101 '
#1950
0!
0$
#1955
1!
1$
b1011110 '
#1960
0!
0$
#1965
1!
1$
b1011111 '
#1970
0!
0$
#1975
1!
1$
b1100000 '
#1980
0!
0$
#1985
1!
1$
b1100001 '
#1990
0!
0$
#1995
1!
1$
b1100010 '
#2000
0!
0$
#2005
1!
1$
b1100011 '
#2010
0!
0$
#2015
1!
1$
b1100100 '
#2020
0!
0$
#2025
1!
1$
b1100101 '
b0 '
0&
0#
#2030
0!
0$
#2035
1!
1$
b1 '
#2040
0!
0$
#2045
1!
1$
b10 '
#2050
0!
0$
#2055
1!
1$
b11 '
#2060
0!
0$
#2065
1!
1$
b100 '
#2070
0!
0$
#2075
1!
1$
b101 '
#2080
0!
0$
#2085
1!
1$
b110 '
#2090
0!
0$
#2095
1!
1$
b111 '
#2100
0!
0$
#2105
1!
1$
b1000 '
#2110
0!
0$
#2115
1!
1$
b1001 '
#2120
0!
0$
#2125
1!
1$
b1010 '
#2130
0!
0$
#2135
1!
1$
b1011 '
#2140
0!
0$
#2145
1!
1$
b1100 '
#2150
0!
0$
#2155
1!
1$
b1101 '
#2160
0!
0$
#2165
1!
1$
b1110 '
#2170
0!
0$
#2175
1!
1$
b1111 '
#2180
0!
0$
#2185
1!
1$
b10000 '
#2190
0!
0$
#2195
1!
1$
b10001 '
#2200
0!
0$
#2205
1!
1$
b10010 '
#2210
0!
0$
#2215
1!
1$
b10011 '
#2220
0!
0$
#2225
1!
1$
b10100 '
#2230
0!
0$
#2235
1!
1$
b10101 '
#2240
0!
0$
#2245
1!
1$
b10110 '
#2250
0!
0$
#2255
1!
1$
b10111 '
#2260
0!
0$
#2265
1!
1$
b11000 '
#2270
0!
0$
#2275
1!
1$
b11001 '
#2280
0!
0$
#2285
1!
1$
b11010 '
#2290
0!
0$
#2295
1!
1$
b11011 '
#2300
0!
0$
#2305
1!
1$
b11100 '
#2310
0!
0$
#2315
1!
1$
b11101 '
#2320
0!
0$
#2325
1!
1$
b11110 '
#2330
0!
0$
#2335
1!
1$
b11111 '
#2340
0!
0$
#2345
1!
1$
b100000 '
#2350
0!
0$
#2355
1!
1$
b100001 '
#2360
0!
0$
#2365
1!
1$
b100010 '
#2370
0!
0$
#2375
1!
1$
b100011 '
#2380
0!
0$
#2385
1!
1$
b100100 '
#2390
0!
0$
#2395
1!
1$
b100101 '
#2400
0!
0$
#2405
1!
1$
b100110 '
#2410
0!
0$
#2415
1!
1$
b100111 '
#2420
0!
0$
#2425
1!
1$
b101000 '
#2430
0!
0$
#2435
1!
1$
b101001 '
#2440
0!
0$
#2445
1!
1$
b101010 '
#2450
0!
0$
#2455
1!
1$
b101011 '
#2460
0!
0$
#2465
1!
1$
b101100 '
#2470
0!
0$
#2475
1!
1$
b101101 '
#2480
0!
0$
#2485
1!
1$
b101110 '
#2490
0!
0$
#2495
1!
1$
b101111 '
#2500
0!
0$
#2505
1!
1$
b110000 '
#2510
0!
0$
#2515
1!
1$
b110001 '
#2520
0!
0$
#2525
1!
1$
b110010 '
#2530
0!
0$
#2535
1!
1$
b110011 '
#2540
0!
0$
#2545
1!
1$
b110100 '
#2550
0!
0$
#2555
1!
1$
b110101 '
#2560
0!
0$
#2565
1!
1$
b110110 '
#2570
0!
0$
#2575
1!
1$
b110111 '
#2580
0!
0$
#2585
1!
1$
b111000 '
#2590
0!
0$
#2595
1!
1$
b111001 '
#2600
0!
0$
#2605
1!
1$
b111010 '
#2610
0!
0$
#2615
1!
1$
b111011 '
#2620
0!
0$
#2625
1!
1$
b111100 '
#2630
0!
0$
#2635
1!
1$
b111101 '
#2640
0!
0$
#2645
1!
1$
b111110 '
#2650
0!
0$
#2655
1!
1$
b111111 '
#2660
0!
0$
#2665
1!
1$
b1000000 '
#2670
0!
0$
#2675
1!
1$
b1000001 '
#2680
0!
0$
#2685
1!
1$
b1000010 '
#2690
0!
0$
#2695
1!
1$
b1000011 '
#2700
0!
0$
#2705
1!
1$
b1000100 '
#2710
0!
0$
#2715
1!
1$
b1000101 '
#2720
0!
0$
#2725
1!
1$
b1000110 '
#2730
0!
0$
#2735
1!
1$
b1000111 '
#2740
0!
0$
#2745
1!
1$
b1001000 '
#2750
0!
0$
#2755
1!
1$
b1001001 '
#2760
0!
0$
#2765
1!
1$
b1001010 '
#2770
0!
0$
#2775
1!
1$
b1001011 '
#2780
0!
0$
#2785
1!
1$
b1001100 '
#2790
0!
0$
#2795
1!
1$
b1001101 '
#2800
0!
0$
#2805
1!
1$
b1001110 '
#2810
0!
0$
#2815
1!
1$
b1001111 '
#2820
0!
0$
#2825
1!
1$
b1010000 '
#2830
0!
0$
#2835
1!
1$
b1010001 '
#2840
0!
0$
#2845
1!
1$
b1010010 '
#2850
0!
0$
#2855
1!
1$
b1010011 '
#2860
0!
0$
#2865
1!
1$
b1010100 '
#2870
0!
0$
#2875
1!
1$
b1010101 '
#2880
0!
0$
#2885
1!
1$
b1010110 '
#2890
0!
0$
#2895
1!
1$
b1010111 '
#2900
0!
0$
#2905
1!
1$
b1011000 '
#2910
0!
0$
#2915
1!
1$
b1011001 '
#2920
0!
0$
#2925
1!
1$
b1011010 '
#2930
0!
0$
#2935
1!
1$
b1011011 '
#2940
0!
0$
#2945
1!
1$
b1011100 '
#2950
0!
0$
#2955
1!
1$
b1011101 '
#2960
0!
0$
#2965
1!
1$
b1011110 '
#2970
0!
0$
#2975
1!
1$
b1011111 '
#2980
0!
0$
#2985
1!
1$
b1100000 '
#2990
0!
0$
#2995
1!
1$
b1100001 '
#3000
0!
0$
#3005
1!
1$
b1100010 '
#3010
0!
0$
#3015
1!
1$
b1100011 '
#3020
0!
0$
#3025
1!
1$
b1100100 '
#3030
0!
0$
#3035
1!
1$
b1100101 '
b0 '
1&
1#
#3040
0!
0$
#3045
1!
1$
b1 '
#3050
0!
0$
#3055
1!
1$
b10 '
#3060
0!
0$
#3065
1!
1$
b11 '
#3070
0!
0$
#3075
1!
1$
b100 '
#3080
0!
0$
#3085
1!
1$
b101 '
#3090
0!
0$
#3095
1!
1$
b110 '
#3100
0!
0$
#3105
1!
1$
b111 '
#3110
0!
0$
#3115
1!
1$
b1000 '
#3120
0!
0$
#3125
1!
1$
b1001 '
#3130
0!
0$
#3135
1!
1$
b1010 '
#3140
0!
0$
#3145
1!
1$
b1011 '
#3150
0!
0$
#3155
1!
1$
b1100 '
#3160
0!
0$
#3165
1!
1$
b1101 '
#3170
0!
0$
#3175
1!
1$
b1110 '
#3180
0!
0$
#3185
1!
1$
b1111 '
#3190
0!
0$
#3195
1!
1$
b10000 '
#3200
0!
0$
#3205
1!
1$
b10001 '
#3210
0!
0$
#3215
1!
1$
b10010 '
#3220
0!
0$
#3225
1!
1$
b10011 '
#3230
0!
0$
#3235
1!
1$
b10100 '
#3240
0!
0$
#3245
1!
1$
b10101 '
#3250
0!
0$
#3255
1!
1$
b10110 '
#3260
0!
0$
#3265
1!
1$
b10111 '
#3270
0!
0$
#3275
1!
1$
b11000 '
#3280
0!
0$
#3285
1!
1$
b11001 '
#3290
0!
0$
#3295
1!
1$
b11010 '
#3300
0!
0$
#3305
1!
1$
b11011 '
#3310
0!
0$
#3315
1!
1$
b11100 '
#3320
0!
0$
#3325
1!
1$
b11101 '
#3330
0!
0$
#3335
1!
1$
b11110 '
#3340
0!
0$
#3345
1!
1$
b11111 '
#3350
0!
0$
#3355
1!
1$
b100000 '
#3360
0!
0$
#3365
1!
1$
b100001 '
#3370
0!
0$
#3375
1!
1$
b100010 '
#3380
0!
0$
#3385
1!
1$
b100011 '
#3390
0!
0$
#3395
1!
1$
b100100 '
#3400
0!
0$
#3405
1!
1$
b100101 '
#3410
0!
0$
#3415
1!
1$
b100110 '
#3420
0!
0$
#3425
1!
1$
b100111 '
#3430
0!
0$
#3435
1!
1$
b101000 '
#3440
0!
0$
#3445
1!
1$
b101001 '
#3450
0!
0$
#3455
1!
1$
b101010 '
#3460
0!
0$
#3465
1!
1$
b101011 '
#3470
0!
0$
#3475
1!
1$
b101100 '
#3480
0!
0$
#3485
1!
1$
b101101 '
#3490
0!
0$
#3495
1!
1$
b101110 '
#3500
0!
0$
#3505
1!
1$
b101111 '
#3510
0!
0$
#3515
1!
1$
b110000 '
#3520
0!
0$
#3525
1!
1$
b110001 '
#3530
0!
0$
#3535
1!
1$
b110010 '
#3540
0!
0$
#3545
1!
1$
b110011 '
#3550
0!
0$
#3555
1!
1$
b110100 '
#3560
0!
0$
#3565
1!
1$
b110101 '
#3570
0!
0$
#3575
1!
1$
b110110 '
#3580
0!
0$
#3585
1!
1$
b110111 '
#3590
0!
0$
#3595
1!
1$
b111000 '
#3600
0!
0$
#3605
1!
1$
b111001 '
#3610
0!
0$
#3615
1!
1$
b111010 '
#3620
0!
0$
#3625
1!
1$
b111011 '
#3630
0!
0$
#3635
1!
1$
b111100 '
#3640
0!
0$
#3645
1!
1$
b111101 '
#3650
0!
0$
#3655
1!
1$
b111110 '
#3660
0!
0$
#3665
1!
1$
b111111 '
#3670
0!
0$
#3675
1!
1$
b1000000 '
#3680
0!
0$
#3685
1!
1$
b1000001 '
#3690
0!
0$
#3695
1!
1$
b1000010 '
#3700
0!
0$
#3705
1!
1$
b1000011 '
#3710
0!
0$
#3715
1!
1$
b1000100 '
#3720
0!
0$
#3725
1!
1$
b1000101 '
#3730
0!
0$
#3735
1!
1$
b1000110 '
#3740
0!
0$
#3745
1!
1$
b1000111 '
#3750
0!
0$
#3755
1!
1$
b1001000 '
#3760
0!
0$
#3765
1!
1$
b1001001 '
#3770
0!
0$
#3775
1!
1$
b1001010 '
#3780
0!
0$
#3785
1!
1$
b1001011 '
#3790
0!
0$
#3795
1!
1$
b1001100 '
#3800
0!
0$
#3805
1!
1$
b1001101 '
#3810
0!
0$
#3815
1!
1$
b1001110 '
#3820
0!
0$
#3825
1!
1$
b1001111 '
#3830
0!
0$
#3835
1!
1$
b1010000 '
#3840
0!
0$
#3845
1!
1$
b1010001 '
#3850
0!
0$
#3855
1!
1$
b1010010 '
#3860
0!
0$
#3865
1!
1$
b1010011 '
#3870
0!
0$
#3875
1!
1$
b1010100 '
#3880
0!
0$
#3885
1!
1$
b1010101 '
#3890
0!
0$
#3895
1!
1$
b1010110 '
#3900
0!
0$
#3905
1!
1$
b1010111 '
#3910
0!
0$
#3915
1!
1$
b1011000 '
#3920
0!
0$
#3925
1!
1$
b1011001 '
#3930
0!
0$
#3935
1!
1$
b1011010 '
#3940
0!
0$
#3945
1!
1$
b1011011 '
#3950
0!
0$
#3955
1!
1$
b1011100 '
#3960
0!
0$
#3965
1!
1$
b1011101 '
#3970
0!
0$
#3975
1!
1$
b1011110 '
#3980
0!
0$
#3985
1!
1$
b1011111 '
#3990
0!
0$
#3995
1!
1$
b1100000 '
#4000
0!
0$
#4005
1!
1$
b1100001 '
#4010
0!
0$
#4015
1!
1$
b1100010 '
#4020
0!
0$
#4025
1!
1$
b1100011 '
#4030
0!
0$
#4035
1!
1$
b1100100 '
#4040
0!
0$
#4045
1!
1$
b1100101 '
b0 '
0&
0#
#4050
0!
0$
#4055
1!
1$
b1 '
#4060
0!
0$
#4065
1!
1$
b10 '
#4070
0!
0$
#4075
1!
1$
b11 '
#4080
0!
0$
#4085
1!
1$
b100 '
#4090
0!
0$
#4095
1!
1$
b101 '
#4100
0!
0$
#4105
1!
1$
b110 '
#4110
0!
0$
#4115
1!
1$
b111 '
#4120
0!
0$
#4125
1!
1$
b1000 '
#4130
0!
0$
#4135
1!
1$
b1001 '
#4140
0!
0$
#4145
1!
1$
b1010 '
#4150
0!
0$
#4155
1!
1$
b1011 '
#4160
0!
0$
#4165
1!
1$
b1100 '
#4170
0!
0$
#4175
1!
1$
b1101 '
#4180
0!
0$
#4185
1!
1$
b1110 '
#4190
0!
0$
#4195
1!
1$
b1111 '
#4200
0!
0$
#4205
1!
1$
b10000 '
#4210
0!
0$
#4215
1!
1$
b10001 '
#4220
0!
0$
#4225
1!
1$
b10010 '
#4230
0!
0$
#4235
1!
1$
b10011 '
#4240
0!
0$
#4245
1!
1$
b10100 '
#4250
0!
0$
#4255
1!
1$
b10101 '
#4260
0!
0$
#4265
1!
1$
b10110 '
#4270
0!
0$
#4275
1!
1$
b10111 '
#4280
0!
0$
#4285
1!
1$
b11000 '
#4290
0!
0$
#4295
1!
1$
b11001 '
#4300
0!
0$
#4305
1!
1$
b11010 '
#4310
0!
0$
#4315
1!
1$
b11011 '
#4320
0!
0$
#4325
1!
1$
b11100 '
#4330
0!
0$
#4335
1!
1$
b11101 '
#4340
0!
0$
#4345
1!
1$
b11110 '
#4350
0!
0$
#4355
1!
1$
b11111 '
#4360
0!
0$
#4365
1!
1$
b100000 '
#4370
0!
0$
#4375
1!
1$
b100001 '
#4380
0!
0$
#4385
1!
1$
b100010 '
#4390
0!
0$
#4395
1!
1$
b100011 '
#4400
0!
0$
#4405
1!
1$
b100100 '
#4410
0!
0$
#4415
1!
1$
b100101 '
#4420
0!
0$
#4425
1!
1$
b100110 '
#4430
0!
0$
#4435
1!
1$
b100111 '
#4440
0!
0$
#4445
1!
1$
b101000 '
#4450
0!
0$
#4455
1!
1$
b101001 '
#4460
0!
0$
#4465
1!
1$
b101010 '
#4470
0!
0$
#4475
1!
1$
b101011 '
#4480
0!
0$
#4485
1!
1$
b101100 '
#4490
0!
0$
#4495
1!
1$
b101101 '
#4500
0!
0$
#4505
1!
1$
b101110 '
#4510
0!
0$
#4515
1!
1$
b101111 '
#4520
0!
0$
#4525
1!
1$
b110000 '
#4530
0!
0$
#4535
1!
1$
b110001 '
#4540
0!
0$
#4545
1!
1$
b110010 '
#4550
0!
0$
#4555
1!
1$
b110011 '
#4560
0!
0$
#4565
1!
1$
b110100 '
#4570
0!
0$
#4575
1!
1$
b110101 '
#4580
0!
0$
#4585
1!
1$
b110110 '
#4590
0!
0$
#4595
1!
1$
b110111 '
#4600
0!
0$
#4605
1!
1$
b111000 '
#4610
0!
0$
#4615
1!
1$
b111001 '
#4620
0!
0$
#4625
1!
1$
b111010 '
#4630
0!
0$
#4635
1!
1$
b111011 '
#4640
0!
0$
#4645
1!
1$
b111100 '
#4650
0!
0$
#4655
1!
1$
b111101 '
#4660
0!
0$
#4665
1!
1$
b111110 '
#4670
0!
0$
#4675
1!
1$
b111111 '
#4680
0!
0$
#4685
1!
1$
b1000000 '
#4690
0!
0$
#4695
1!
1$
b1000001 '
#4700
0!
0$
#4705
1!
1$
b1000010 '
#4710
0!
0$
#4715
1!
1$
b1000011 '
#4720
0!
0$
#4725
1!
1$
b1000100 '
#4730
0!
0$
#4735
1!
1$
b1000101 '
#4740
0!
0$
#4745
1!
1$
b1000110 '
#4750
0!
0$
#4755
1!
1$
b1000111 '
#4760
0!
0$
#4765
1!
1$
b1001000 '
#4770
0!
0$
#4775
1!
1$
b1001001 '
#4780
0!
0$
#4785
1!
1$
b1001010 '
#4790
0!
0$
#4795
1!
1$
b1001011 '
#4800
0!
0$
#4805
1!
1$
b1001100 '
#4810
0!
0$
#4815
1!
1$
b1001101 '
#4820
0!
0$
#4825
1!
1$
b1001110 '
#4830
0!
0$
#4835
1!
1$
b1001111 '
#4840
0!
0$
#4845
1!
1$
b1010000 '
#4850
0!
0$
#4855
1!
1$
b1010001 '
#4860
0!
0$
#4865
1!
1$
b1010010 '
#4870
0!
0$
#4875
1!
1$
b1010011 '
#4880
0!
0$
#4885
1!
1$
b1010100 '
#4890
0!
0$
#4895
1!
1$
b1010101 '
#4900
0!
0$
#4905
1!
1$
b1010110 '
#4910
0!
0$
#4915
1!
1$
b1010111 '
#4920
0!
0$
#4925
1!
1$
b1011000 '
#4930
0!
0$
#4935
1!
1$
b1011001 '
#4940
0!
0$
#4945
1!
1$
b1011010 '
#4950
0!
0$
#4955
1!
1$
b1011011 '
#4960
0!
0$
#4965
1!
1$
b1011100 '
#4970
0!
0$
#4975
1!
1$
b1011101 '
#4980
0!
0$
#4985
1!
1$
b1011110 '
#4990
0!
0$
#4995
1!
1$
b1011111 '
#5000
0!
0$
#5005
1!
1$
b1100000 '
#5010
0!
0$
#5015
1!
1$
b1100001 '
#5020
0!
0$
#5025
1!
1$
b1100010 '
#5030
0!
0$
#5035
1!
1$
b1100011 '
#5040
0!
0$
#5045
1!
1$
b1100100 '
#5050
0!
0$
#5055
1!
1$
b1100101 '
b0 '
1&
1#
#5060
0!
0$
#5065
1!
1$
b1 '
#5070
0!
0$
#5075
1!
1$
b10 '
#5080
0!
0$
#5085
1!
1$
b11 '
#5090
0!
0$
#5095
1!
1$
b100 '
#5100
0!
0$
#5105
1!
1$
b101 '
#5110
0!
0$
#5115
1!
1$
b110 '
#5120
0!
0$
#5125
1!
1$
b111 '
#5130
0!
0$
#5135
1!
1$
b1000 '
#5140
0!
0$
#5145
1!
1$
b1001 '
#5150
0!
0$
#5155
1!
1$
b1010 '
#5160
0!
0$
#5165
1!
1$
b1011 '
#5170
0!
0$
#5175
1!
1$
b1100 '
#5180
0!
0$
#5185
1!
1$
b1101 '
#5190
0!
0$
#5195
1!
1$
b1110 '
#5200
0!
0$
#5205
1!
1$
b1111 '
#5210
0!
0$
#5215
1!
1$
b10000 '
#5220
0!
0$
#5225
1!
1$
b10001 '
#5230
0!
0$
#5235
1!
1$
b10010 '
#5240
0!
0$
#5245
1!
1$
b10011 '
#5250
0!
0$
#5255
1!
1$
b10100 '
#5260
0!
0$
#5265
1!
1$
b10101 '
#5270
0!
0$
#5275
1!
1$
b10110 '
#5280
0!
0$
#5285
1!
1$
b10111 '
#5290
0!
0$
#5295
1!
1$
b11000 '
#5300
0!
0$
#5305
1!
1$
b11001 '
#5310
0!
0$
#5315
1!
1$
b11010 '
#5320
0!
0$
#5325
1!
1$
b11011 '
#5330
0!
0$
#5335
1!
1$
b11100 '
#5340
0!
0$
#5345
1!
1$
b11101 '
#5350
0!
0$
#5355
1!
1$
b11110 '
#5360
0!
0$
#5365
1!
1$
b11111 '
#5370
0!
0$
#5375
1!
1$
b100000 '
#5380
0!
0$
#5385
1!
1$
b100001 '
#5390
0!
0$
#5395
1!
1$
b100010 '
#5400
0!
0$
#5405
1!
1$
b100011 '
#5410
0!
0$
#5415
1!
1$
b100100 '
#5420
0!
0$
#5425
1!
1$
b100101 '
#5430
0!
0$
#5435
1!
1$
b100110 '
#5440
0!
0$
#5445
1!
1$
b100111 '
#5450
0!
0$
#5455
1!
1$
b101000 '
#5460
0!
0$
#5465
1!
1$
b101001 '
#5470
0!
0$
#5475
1!
1$
b101010 '
#5480
0!
0$
#5485
1!
1$
b101011 '
#5490
0!
0$
#5495
1!
1$
b101100 '
#5500
0!
0$
#5505
1!
1$
b101101 '
#5510
0!
0$
#5515
1!
1$
b101110 '
#5520
0!
0$
#5525
1!
1$
b101111 '
#5530
0!
0$
#5535
1!
1$
b110000 '
#5540
0!
0$
#5545
1!
1$
b110001 '
#5550
0!
0$
#5555
1!
1$
b110010 '
#5560
0!
0$
#5565
1!
1$
b110011 '
#5570
0!
0$
#5575
1!
1$
b110100 '
#5580
0!
0$
#5585
1!
1$
b110101 '
#5590
0!
0$
#5595
1!
1$
b110110 '
#5600
0!
0$
#5605
1!
1$
b110111 '
#5610
0!
0$
#5615
1!
1$
b111000 '
#5620
0!
0$
#5625
1!
1$
b111001 '
#5630
0!
0$
#5635
1!
1$
b111010 '
#5640
0!
0$
#5645
1!
1$
b111011 '
#5650
0!
0$
#5655
1!
1$
b111100 '
#5660
0!
0$
#5665
1!
1$
b111101 '
#5670
0!
0$
